Multiplexador/simulation/qsim/Multiplexador.msim.vcd
$comment
	File created using the following command:
		vcd file Multiplexador.msim.vcd -direction
$end
$date
	Thu Nov 02 15:56:26 2023
$end
$version
	ModelSim Version 10.5b
$end
$timescale
	1ps
$end

$scope module mux4_vhd_vec_tst $end
$var wire 1 ! a $end
$var wire 1 " b $end
$var wire 1 # c $end
$var wire 1 $ d $end
$var wire 1 % s0 $end
$var wire 1 & s1 $end
$var wire 1 ' z $end

$scope module i1 $end
$var wire 1 ( gnd $end
$var wire 1 ) vcc $end
$var wire 1 * unknown $end
$var wire 1 + devoe $end
$var wire 1 , devclrn $end
$var wire 1 - devpor $end
$var wire 1 . ww_devoe $end
$var wire 1 / ww_devclrn $end
$var wire 1 0 ww_devpor $end
$var wire 1 1 ww_a $end
$var wire 1 2 ww_b $end
$var wire 1 3 ww_c $end
$var wire 1 4 ww_d $end
$var wire 1 5 ww_s0 $end
$var wire 1 6 ww_s1 $end
$var wire 1 7 ww_z $end
$var wire 1 8 \z~output_o\ $end
$var wire 1 9 \a~input_o\ $end
$var wire 1 : \b~input_o\ $end
$var wire 1 ; \c~input_o\ $end
$var wire 1 < \d~input_o\ $end
$var wire 1 = \s0~input_o\ $end
$var wire 1 > \s1~input_o\ $end
$var wire 1 ? \mux3|z~0_combout\ $end
$var wire 1 @ \ALT_INV_a~input_o\ $end
$var wire 1 A \ALT_INV_c~input_o\ $end
$var wire 1 B \ALT_INV_b~input_o\ $end
$var wire 1 C \ALT_INV_d~input_o\ $end
$var wire 1 D \ALT_INV_s0~input_o\ $end
$var wire 1 E \ALT_INV_s1~input_o\ $end
$upscope $end
$upscope $end
$enddefinitions $end
#0
$dumpvars
0!
0"
0#
0$
0%
0&
0'
0(
1)
x*
1+
1,
1-
1.
1/
10
01
02
03
04
05
06
07
08
09
0:
0;
0<
0=
0>
0?
1@
1A
1B
1C
1D
1E
$end
#35000
1%
15
1=
0D
#45000
1!
11
19
0@
#50000
1$
14
1<
0C
#65000
1#
13
1;
0A
#70000
0%
05
0=
1D
1?
18
17
1'
#75000
1"
12
1:
0B
#90000
0!
1&
01
16
1>
09
1@
0E
#100000
0$
04
0<
1C
#105000
1%
15
1=
0D
0?
08
07
0'
#130000
0#
03
0;
1A
#135000
1!
11
19
0@
#140000
0%
05
0=
1D
#150000
1$
0"
14
02
0:
1<
0C
1B
#175000
1%
15
1=
0D
1?
18
17
1'
#180000
0!
0&
01
06
0>
09
1@
1E
0?
08
07
0'
#195000
1#
13
1;
0A
#200000
0$
04
0<
1C
#210000
0%
05
0=
1D
#225000
1!
1"
11
12
1:
19
0@
0B
1?
18
17
1'
#245000
1%
15
1=
0D
#250000
1$
14
1<
0C
#260000
0#
03
0;
1A
#270000
0!
1&
01
16
1>
09
1@
0E
#280000
0%
05
0=
1D
0?
08
07
0'
#300000
0$
0"
04
02
0:
0<
1C
1B
#315000
1%
1!
15
11
19
1=
0D
0@
#325000
1#
13
1;
0A
#350000
0%
1$
05
14
1<
0=
1D
0C
1?
18
17
1'
#360000
0!
0&
01
06
0>
09
1@
1E
0?
08
07
0'
#375000
1"
12
1:
0B
#385000
1%
15
1=
0D
1?
18
17
1'
#390000
0#
03
0;
1A
#400000
0$
04
0<
1C
#405000
1!
11
19
0@
#420000
0%
05
0=
1D
#450000
0!
1$
0"
1&
01
14
02
16
1>
0:
1<
09
1@
0C
1B
0E
0?
08
07
0'
#455000
1%
1#
15
13
1;
1=
0D
0A
1?
18
17
1'
#490000
0%
05
0=
1D
#495000
1!
11
19
0@
#500000
0$
04
0<
1C
#520000
0#
03
0;
1A
0?
08
07
0'
#525000
1%
1"
15
12
1:
1=
0D
0B
#540000
0!
0&
01
06
0>
09
1@
1E
1?
18
17
1'
#550000
1$
14
1<
0C
#560000
0%
05
0=
1D
0?
08
07
0'
#585000
1!
1#
11
13
1;
19
0@
0A
1?
18
17
1'
#595000
1%
15
1=
0D
#600000
0$
0"
04
02
0:
0<
1C
1B
0?
08
07
0'
#630000
0%
0!
1&
05
01
16
1>
09
0=
1D
1@
0E
1?
18
17
1'
#650000
1$
0#
14
03
0;
1<
0C
1A
0?
08
07
0'
#665000
1%
15
1=
0D
1?
18
17
1'
#675000
1!
1"
11
12
1:
19
0@
0B
#700000
0%
0$
05
04
0<
0=
1D
1C
0?
08
07
0'
#715000
1#
13
1;
0A
1?
18
17
1'
#720000
0!
0&
01
06
0>
09
1@
1E
0?
08
07
0'
#735000
1%
15
1=
0D
1?
18
17
1'
#750000
1$
0"
14
02
0:
1<
0C
1B
0?
08
07
0'
#765000
1!
11
19
0@
#770000
0%
05
0=
1D
1?
18
17
1'
#780000
0#
03
0;
1A
#800000
0$
04
0<
1C
#805000
1%
15
1=
0D
0?
08
07
0'
#810000
0!
1&
01
16
1>
09
1@
0E
#825000
1"
12
1:
0B
#840000
0%
05
0=
1D
#845000
1#
13
1;
0A
1?
18
17
1'
#850000
1$
14
1<
0C
#855000
1!
11
19
0@
#875000
1%
15
1=
0D
#900000
0!
0$
0"
0&
01
04
02
06
0>
0:
0<
09
1@
1C
1B
1E
0?
08
07
0'
#910000
0%
0#
05
03
0;
0=
1D
1A
#945000
1%
1!
15
11
19
1=
0D
0@
#950000
1$
14
1<
0C
#975000
1#
1"
13
12
1:
1;
0A
0B
1?
18
17
1'
#980000
0%
05
0=
1D
#990000
0!
1&
01
16
1>
09
1@
0E
